{
	"entries" : 
	[
		{
			"name" : "CMAKE_ADDR2LINE",
			"properties" : 
			[
				{
					"name" : "ADVANCED",
					"value" : "1"
				},
				{
					"name" : "HELPSTRING",
					"value" : "Path to a program."
				}
			],
			"type" : "FILEPATH",
			"value" : "C:/Qt/Tools/mingw1120_64/bin/addr2line.exe"
		},
		{
			"name" : "CMAKE_AR",
			"properties" : 
			[
				{
					"name" : "ADVANCED",
					"value" : "1"
				},
				{
					"name" : "HELPSTRING",
					"value" : "Path to a program."
				}
			],
			"type" : "FILEPATH",
			"value" : "C:/Qt/Tools/mingw1120_64/bin/ar.exe"
		},
		{
			"name" : "CMAKE_BUILD_TYPE",
			"properties" : 
			[
				{
					"name" : "HELPSTRING",
					"value" : "No help, variable specified on the command line."
				}
			],
			"type" : "STRING",
			"value" : "Debug"
		},
		{
			"name" : "CMAKE_CACHEFILE_DIR",
			"properties" : 
			[
				{
					"name" : "HELPSTRING",
					"value" : "This is the directory where this CMakeCache.txt was created"
				}
			],
			"type" : "INTERNAL",
			"value" : "c:/Users/MDahre/Documents/Projects/Qtsetup/build-N-Queen-Problem-Desktop_Qt_6_3_1_MinGW_64_bit-Debug"
		},
		{
			"name" : "CMAKE_CACHE_MAJOR_VERSION",
			"properties" : 
			[
				{
					"name" : "HELPSTRING",
					"value" : "Major version of cmake used to create the current loaded cache"
				}
			],
			"type" : "INTERNAL",
			"value" : "3"
		},
		{
			"name" : "CMAKE_CACHE_MINOR_VERSION",
			"properties" : 
			[
				{
					"name" : "HELPSTRING",
					"value" : "Minor version of cmake used to create the current loaded cache"
				}
			],
			"type" : "INTERNAL",
			"value" : "23"
		},
		{
			"name" : "CMAKE_CACHE_PATCH_VERSION",
			"properties" : 
			[
				{
					"name" : "HELPSTRING",
					"value" : "Patch version of cmake used to create the current loaded cache"
				}
			],
			"type" : "INTERNAL",
			"value" : "2"
		},
		{
			"name" : "CMAKE_COMMAND",
			"properties" : 
			[
				{
					"name" : "HELPSTRING",
					"value" : "Path to CMake executable."
				}
			],
			"type" : "INTERNAL",
			"value" : "C:/Qt/Tools/CMake_64/bin/cmake.exe"
		},
		{
			"name" : "CMAKE_CPACK_COMMAND",
			"properties" : 
			[
				{
					"name" : "HELPSTRING",
					"value" : "Path to cpack program executable."
				}
			],
			"type" : "INTERNAL",
			"value" : "C:/Qt/Tools/CMake_64/bin/cpack.exe"
		},
		{
			"name" : "CMAKE_CTEST_COMMAND",
			"properties" : 
			[
				{
					"name" : "HELPSTRING",
					"value" : "Path to ctest program executable."
				}
			],
			"type" : "INTERNAL",
			"value" : "C:/Qt/Tools/CMake_64/bin/ctest.exe"
		},
		{
			"name" : "CMAKE_CXX_COMPILER",
			"properties" : 
			[
				{
					"name" : "ADVANCED",
					"value" : "1"
				},
				{
					"name" : "HELPSTRING",
					"value" : "CXX compiler"
				}
			],
			"type" : "STRING",
			"value" : "C:/Qt/Tools/mingw1120_64/bin/g++.exe"
		},
		{
			"name" : "CMAKE_CXX_COMPILER_AR",
			"properties" : 
			[
				{
					"name" : "ADVANCED",
					"value" : "1"
				},
				{
					"name" : "HELPSTRING",
					"value" : "A wrapper around 'ar' adding the appropriate '--plugin' option for the GCC compiler"
				}
			],
			"type" : "FILEPATH",
			"value" : "C:/Qt/Tools/mingw1120_64/bin/gcc-ar.exe"
		},
		{
			"name" : "CMAKE_CXX_COMPILER_RANLIB",
			"properties" : 
			[
				{
					"name" : "ADVANCED",
					"value" : "1"
				},
				{
					"name" : "HELPSTRING",
					"value" : "A wrapper around 'ranlib' adding the appropriate '--plugin' option for the GCC compiler"
				}
			],
			"type" : "FILEPATH",
			"value" : "C:/Qt/Tools/mingw1120_64/bin/gcc-ranlib.exe"
		},
		{
			"name" : "CMAKE_CXX_FLAGS",
			"properties" : 
			[
				{
					"name" : "ADVANCED",
					"value" : "1"
				},
				{
					"name" : "HELPSTRING",
					"value" : "Flags used by the CXX compiler during all build types."
				}
			],
			"type" : "STRING",
			"value" : "-DQT_QML_DEBUG"
		},
		{
			"name" : "CMAKE_CXX_FLAGS_DEBUG",
			"properties" : 
			[
				{
					"name" : "ADVANCED",
					"value" : "1"
				},
				{
					"name" : "HELPSTRING",
					"value" : "Flags used by the CXX compiler during DEBUG builds."
				}
			],
			"type" : "STRING",
			"value" : "-g"
		},
		{
			"name" : "CMAKE_CXX_FLAGS_INIT",
			"properties" : 
			[
				{
					"name" : "HELPSTRING",
					"value" : "No help, variable specified on the command line."
				}
			],
			"type" : "STRING",
			"value" : "-DQT_QML_DEBUG"
		},
		{
			"name" : "CMAKE_CXX_FLAGS_MINSIZEREL",
			"properties" : 
			[
				{
					"name" : "ADVANCED",
					"value" : "1"
				},
				{
					"name" : "HELPSTRING",
					"value" : "Flags used by the CXX compiler during MINSIZEREL builds."
				}
			],
			"type" : "STRING",
			"value" : "-Os -DNDEBUG"
		},
		{
			"name" : "CMAKE_CXX_FLAGS_RELEASE",
			"properties" : 
			[
				{
					"name" : "ADVANCED",
					"value" : "1"
				},
				{
					"name" : "HELPSTRING",
					"value" : "Flags used by the CXX compiler during RELEASE builds."
				}
			],
			"type" : "STRING",
			"value" : "-O3 -DNDEBUG"
		},
		{
			"name" : "CMAKE_CXX_FLAGS_RELWITHDEBINFO",
			"properties" : 
			[
				{
					"name" : "ADVANCED",
					"value" : "1"
				},
				{
					"name" : "HELPSTRING",
					"value" : "Flags used by the CXX compiler during RELWITHDEBINFO builds."
				}
			],
			"type" : "STRING",
			"value" : "-O2 -g -DNDEBUG"
		},
		{
			"name" : "CMAKE_CXX_STANDARD_LIBRARIES",
			"properties" : 
			[
				{
					"name" : "ADVANCED",
					"value" : "1"
				},
				{
					"name" : "HELPSTRING",
					"value" : "Libraries linked by default with all C++ applications."
				}
			],
			"type" : "STRING",
			"value" : "-lkernel32 -luser32 -lgdi32 -lwinspool -lshell32 -lole32 -loleaut32 -luuid -lcomdlg32 -ladvapi32"
		},
		{
			"name" : "CMAKE_C_COMPILER",
			"properties" : 
			[
				{
					"name" : "HELPSTRING",
					"value" : "No help, variable specified on the command line."
				}
			],
			"type" : "FILEPATH",
			"value" : "C:/Qt/Tools/mingw1120_64/bin/gcc.exe"
		},
		{
			"name" : "CMAKE_DLLTOOL",
			"properties" : 
			[
				{
					"name" : "ADVANCED",
					"value" : "1"
				},
				{
					"name" : "HELPSTRING",
					"value" : "Path to a program."
				}
			],
			"type" : "FILEPATH",
			"value" : "C:/Qt/Tools/mingw1120_64/bin/dlltool.exe"
		},
		{
			"name" : "CMAKE_EDIT_COMMAND",
			"properties" : 
			[
				{
					"name" : "HELPSTRING",
					"value" : "Path to cache edit program executable."
				}
			],
			"type" : "INTERNAL",
			"value" : "C:/Qt/Tools/CMake_64/bin/cmake-gui.exe"
		},
		{
			"name" : "CMAKE_EXECUTABLE_FORMAT",
			"properties" : 
			[
				{
					"name" : "HELPSTRING",
					"value" : "Executable file format"
				}
			],
			"type" : "INTERNAL",
			"value" : "Unknown"
		},
		{
			"name" : "CMAKE_EXE_LINKER_FLAGS",
			"properties" : 
			[
				{
					"name" : "ADVANCED",
					"value" : "1"
				},
				{
					"name" : "HELPSTRING",
					"value" : "Flags used by the linker during all build types."
				}
			],
			"type" : "STRING",
			"value" : ""
		},
		{
			"name" : "CMAKE_EXE_LINKER_FLAGS_DEBUG",
			"properties" : 
			[
				{
					"name" : "ADVANCED",
					"value" : "1"
				},
				{
					"name" : "HELPSTRING",
					"value" : "Flags used by the linker during DEBUG builds."
				}
			],
			"type" : "STRING",
			"value" : ""
		},
		{
			"name" : "CMAKE_EXE_LINKER_FLAGS_MINSIZEREL",
			"properties" : 
			[
				{
					"name" : "ADVANCED",
					"value" : "1"
				},
				{
					"name" : "HELPSTRING",
					"value" : "Flags used by the linker during MINSIZEREL builds."
				}
			],
			"type" : "STRING",
			"value" : ""
		},
		{
			"name" : "CMAKE_EXE_LINKER_FLAGS_RELEASE",
			"properties" : 
			[
				{
					"name" : "ADVANCED",
					"value" : "1"
				},
				{
					"name" : "HELPSTRING",
					"value" : "Flags used by the linker during RELEASE builds."
				}
			],
			"type" : "STRING",
			"value" : ""
		},
		{
			"name" : "CMAKE_EXE_LINKER_FLAGS_RELWITHDEBINFO",
			"properties" : 
			[
				{
					"name" : "ADVANCED",
					"value" : "1"
				},
				{
					"name" : "HELPSTRING",
					"value" : "Flags used by the linker during RELWITHDEBINFO builds."
				}
			],
			"type" : "STRING",
			"value" : ""
		},
		{
			"name" : "CMAKE_EXPORT_COMPILE_COMMANDS",
			"properties" : 
			[
				{
					"name" : "ADVANCED",
					"value" : "1"
				},
				{
					"name" : "HELPSTRING",
					"value" : "Enable/Disable output of compile commands during generation."
				}
			],
			"type" : "BOOL",
			"value" : ""
		},
		{
			"name" : "CMAKE_GENERATOR",
			"properties" : 
			[
				{
					"name" : "HELPSTRING",
					"value" : "No help, variable specified on the command line."
				}
			],
			"type" : "STRING",
			"value" : "Ninja"
		},
		{
			"name" : "CMAKE_GENERATOR_INSTANCE",
			"properties" : 
			[
				{
					"name" : "HELPSTRING",
					"value" : "Generator instance identifier."
				}
			],
			"type" : "INTERNAL",
			"value" : ""
		},
		{
			"name" : "CMAKE_GENERATOR_PLATFORM",
			"properties" : 
			[
				{
					"name" : "HELPSTRING",
					"value" : "Name of generator platform."
				}
			],
			"type" : "INTERNAL",
			"value" : ""
		},
		{
			"name" : "CMAKE_GENERATOR_TOOLSET",
			"properties" : 
			[
				{
					"name" : "HELPSTRING",
					"value" : "Name of generator toolset."
				}
			],
			"type" : "INTERNAL",
			"value" : ""
		},
		{
			"name" : "CMAKE_GNUtoMS",
			"properties" : 
			[
				{
					"name" : "HELPSTRING",
					"value" : "Convert GNU import libraries to MS format (requires Visual Studio)"
				}
			],
			"type" : "BOOL",
			"value" : "OFF"
		},
		{
			"name" : "CMAKE_HAVE_LIBC_PTHREAD",
			"properties" : 
			[
				{
					"name" : "HELPSTRING",
					"value" : "Test CMAKE_HAVE_LIBC_PTHREAD"
				}
			],
			"type" : "INTERNAL",
			"value" : "1"
		},
		{
			"name" : "CMAKE_HAVE_PTHREAD_H",
			"properties" : 
			[
				{
					"name" : "HELPSTRING",
					"value" : "Have include pthread.h"
				}
			],
			"type" : "INTERNAL",
			"value" : "1"
		},
		{
			"name" : "CMAKE_HOME_DIRECTORY",
			"properties" : 
			[
				{
					"name" : "HELPSTRING",
					"value" : "Source directory with the top level CMakeLists.txt file for this project"
				}
			],
			"type" : "INTERNAL",
			"value" : "C:/Users/MDahre/Documents/Projects/Qtsetup/N-Queen-Problem"
		},
		{
			"name" : "CMAKE_INSTALL_BINDIR",
			"properties" : 
			[
				{
					"name" : "ADVANCED",
					"value" : "1"
				},
				{
					"name" : "HELPSTRING",
					"value" : "User executables (bin)"
				}
			],
			"type" : "PATH",
			"value" : "bin"
		},
		{
			"name" : "CMAKE_INSTALL_DATADIR",
			"properties" : 
			[
				{
					"name" : "ADVANCED",
					"value" : "1"
				},
				{
					"name" : "HELPSTRING",
					"value" : "Read-only architecture-independent data (DATAROOTDIR)"
				}
			],
			"type" : "PATH",
			"value" : ""
		},
		{
			"name" : "CMAKE_INSTALL_DATAROOTDIR",
			"properties" : 
			[
				{
					"name" : "ADVANCED",
					"value" : "1"
				},
				{
					"name" : "HELPSTRING",
					"value" : "Read-only architecture-independent data root (share)"
				}
			],
			"type" : "PATH",
			"value" : "share"
		},
		{
			"name" : "CMAKE_INSTALL_DOCDIR",
			"properties" : 
			[
				{
					"name" : "ADVANCED",
					"value" : "1"
				},
				{
					"name" : "HELPSTRING",
					"value" : "Documentation root (DATAROOTDIR/doc/PROJECT_NAME)"
				}
			],
			"type" : "PATH",
			"value" : ""
		},
		{
			"name" : "CMAKE_INSTALL_INCLUDEDIR",
			"properties" : 
			[
				{
					"name" : "ADVANCED",
					"value" : "1"
				},
				{
					"name" : "HELPSTRING",
					"value" : "C header files (include)"
				}
			],
			"type" : "PATH",
			"value" : "include"
		},
		{
			"name" : "CMAKE_INSTALL_INFODIR",
			"properties" : 
			[
				{
					"name" : "ADVANCED",
					"value" : "1"
				},
				{
					"name" : "HELPSTRING",
					"value" : "Info documentation (DATAROOTDIR/info)"
				}
			],
			"type" : "PATH",
			"value" : ""
		},
		{
			"name" : "CMAKE_INSTALL_LIBDIR",
			"properties" : 
			[
				{
					"name" : "ADVANCED",
					"value" : "1"
				},
				{
					"name" : "HELPSTRING",
					"value" : "Object code libraries (lib)"
				}
			],
			"type" : "PATH",
			"value" : "lib"
		},
		{
			"name" : "CMAKE_INSTALL_LIBEXECDIR",
			"properties" : 
			[
				{
					"name" : "ADVANCED",
					"value" : "1"
				},
				{
					"name" : "HELPSTRING",
					"value" : "Program executables (libexec)"
				}
			],
			"type" : "PATH",
			"value" : "libexec"
		},
		{
			"name" : "CMAKE_INSTALL_LOCALEDIR",
			"properties" : 
			[
				{
					"name" : "ADVANCED",
					"value" : "1"
				},
				{
					"name" : "HELPSTRING",
					"value" : "Locale-dependent data (DATAROOTDIR/locale)"
				}
			],
			"type" : "PATH",
			"value" : ""
		},
		{
			"name" : "CMAKE_INSTALL_LOCALSTATEDIR",
			"properties" : 
			[
				{
					"name" : "ADVANCED",
					"value" : "1"
				},
				{
					"name" : "HELPSTRING",
					"value" : "Modifiable single-machine data (var)"
				}
			],
			"type" : "PATH",
			"value" : "var"
		},
		{
			"name" : "CMAKE_INSTALL_MANDIR",
			"properties" : 
			[
				{
					"name" : "ADVANCED",
					"value" : "1"
				},
				{
					"name" : "HELPSTRING",
					"value" : "Man documentation (DATAROOTDIR/man)"
				}
			],
			"type" : "PATH",
			"value" : ""
		},
		{
			"name" : "CMAKE_INSTALL_OLDINCLUDEDIR",
			"properties" : 
			[
				{
					"name" : "ADVANCED",
					"value" : "1"
				},
				{
					"name" : "HELPSTRING",
					"value" : "C header files for non-gcc (/usr/include)"
				}
			],
			"type" : "PATH",
			"value" : "/usr/include"
		},
		{
			"name" : "CMAKE_INSTALL_PREFIX",
			"properties" : 
			[
				{
					"name" : "HELPSTRING",
					"value" : "Install path prefix, prepended onto install directories."
				}
			],
			"type" : "PATH",
			"value" : "C:/Program Files (x86)/N-Queen-Problem"
		},
		{
			"name" : "CMAKE_INSTALL_RUNSTATEDIR",
			"properties" : 
			[
				{
					"name" : "ADVANCED",
					"value" : "1"
				},
				{
					"name" : "HELPSTRING",
					"value" : "Run-time variable data (LOCALSTATEDIR/run)"
				}
			],
			"type" : "PATH",
			"value" : ""
		},
		{
			"name" : "CMAKE_INSTALL_SBINDIR",
			"properties" : 
			[
				{
					"name" : "ADVANCED",
					"value" : "1"
				},
				{
					"name" : "HELPSTRING",
					"value" : "System admin executables (sbin)"
				}
			],
			"type" : "PATH",
			"value" : "sbin"
		},
		{
			"name" : "CMAKE_INSTALL_SHAREDSTATEDIR",
			"properties" : 
			[
				{
					"name" : "ADVANCED",
					"value" : "1"
				},
				{
					"name" : "HELPSTRING",
					"value" : "Modifiable architecture-independent data (com)"
				}
			],
			"type" : "PATH",
			"value" : "com"
		},
		{
			"name" : "CMAKE_INSTALL_SYSCONFDIR",
			"properties" : 
			[
				{
					"name" : "ADVANCED",
					"value" : "1"
				},
				{
					"name" : "HELPSTRING",
					"value" : "Read-only single-machine data (etc)"
				}
			],
			"type" : "PATH",
			"value" : "etc"
		},
		{
			"name" : "CMAKE_LINKER",
			"properties" : 
			[
				{
					"name" : "ADVANCED",
					"value" : "1"
				},
				{
					"name" : "HELPSTRING",
					"value" : "Path to a program."
				}
			],
			"type" : "FILEPATH",
			"value" : "C:/Qt/Tools/mingw1120_64/bin/ld.exe"
		},
		{
			"name" : "CMAKE_MAKE_PROGRAM",
			"properties" : 
			[
				{
					"name" : "ADVANCED",
					"value" : "1"
				},
				{
					"name" : "HELPSTRING",
					"value" : "Program used to build from build.ninja files."
				}
			],
			"type" : "FILEPATH",
			"value" : "C:/Qt/Tools/Ninja/ninja.exe"
		},
		{
			"name" : "CMAKE_MODULE_LINKER_FLAGS",
			"properties" : 
			[
				{
					"name" : "ADVANCED",
					"value" : "1"
				},
				{
					"name" : "HELPSTRING",
					"value" : "Flags used by the linker during the creation of modules during all build types."
				}
			],
			"type" : "STRING",
			"value" : ""
		},
		{
			"name" : "CMAKE_MODULE_LINKER_FLAGS_DEBUG",
			"properties" : 
			[
				{
					"name" : "ADVANCED",
					"value" : "1"
				},
				{
					"name" : "HELPSTRING",
					"value" : "Flags used by the linker during the creation of modules during DEBUG builds."
				}
			],
			"type" : "STRING",
			"value" : ""
		},
		{
			"name" : "CMAKE_MODULE_LINKER_FLAGS_MINSIZEREL",
			"properties" : 
			[
				{
					"name" : "ADVANCED",
					"value" : "1"
				},
				{
					"name" : "HELPSTRING",
					"value" : "Flags used by the linker during the creation of modules during MINSIZEREL builds."
				}
			],
			"type" : "STRING",
			"value" : ""
		},
		{
			"name" : "CMAKE_MODULE_LINKER_FLAGS_RELEASE",
			"properties" : 
			[
				{
					"name" : "ADVANCED",
					"value" : "1"
				},
				{
					"name" : "HELPSTRING",
					"value" : "Flags used by the linker during the creation of modules during RELEASE builds."
				}
			],
			"type" : "STRING",
			"value" : ""
		},
		{
			"name" : "CMAKE_MODULE_LINKER_FLAGS_RELWITHDEBINFO",
			"properties" : 
			[
				{
					"name" : "ADVANCED",
					"value" : "1"
				},
				{
					"name" : "HELPSTRING",
					"value" : "Flags used by the linker during the creation of modules during RELWITHDEBINFO builds."
				}
			],
			"type" : "STRING",
			"value" : ""
		},
		{
			"name" : "CMAKE_NM",
			"properties" : 
			[
				{
					"name" : "ADVANCED",
					"value" : "1"
				},
				{
					"name" : "HELPSTRING",
					"value" : "Path to a program."
				}
			],
			"type" : "FILEPATH",
			"value" : "C:/Qt/Tools/mingw1120_64/bin/nm.exe"
		},
		{
			"name" : "CMAKE_NUMBER_OF_MAKEFILES",
			"properties" : 
			[
				{
					"name" : "HELPSTRING",
					"value" : "number of local generators"
				}
			],
			"type" : "INTERNAL",
			"value" : "1"
		},
		{
			"name" : "CMAKE_OBJCOPY",
			"properties" : 
			[
				{
					"name" : "ADVANCED",
					"value" : "1"
				},
				{
					"name" : "HELPSTRING",
					"value" : "Path to a program."
				}
			],
			"type" : "FILEPATH",
			"value" : "C:/Qt/Tools/mingw1120_64/bin/objcopy.exe"
		},
		{
			"name" : "CMAKE_OBJDUMP",
			"properties" : 
			[
				{
					"name" : "ADVANCED",
					"value" : "1"
				},
				{
					"name" : "HELPSTRING",
					"value" : "Path to a program."
				}
			],
			"type" : "FILEPATH",
			"value" : "C:/Qt/Tools/mingw1120_64/bin/objdump.exe"
		},
		{
			"name" : "CMAKE_PLATFORM_INFO_INITIALIZED",
			"properties" : 
			[
				{
					"name" : "HELPSTRING",
					"value" : "Platform information initialized"
				}
			],
			"type" : "INTERNAL",
			"value" : "1"
		},
		{
			"name" : "CMAKE_PREFIX_PATH",
			"properties" : 
			[
				{
					"name" : "HELPSTRING",
					"value" : "No help, variable specified on the command line."
				}
			],
			"type" : "PATH",
			"value" : "C:/Qt/6.3.1/mingw_64"
		},
		{
			"name" : "CMAKE_PROJECT_DESCRIPTION",
			"properties" : 
			[
				{
					"name" : "HELPSTRING",
					"value" : "Value Computed by CMake"
				}
			],
			"type" : "STATIC",
			"value" : ""
		},
		{
			"name" : "CMAKE_PROJECT_HOMEPAGE_URL",
			"properties" : 
			[
				{
					"name" : "HELPSTRING",
					"value" : "Value Computed by CMake"
				}
			],
			"type" : "STATIC",
			"value" : ""
		},
		{
			"name" : "CMAKE_PROJECT_INCLUDE_BEFORE",
			"properties" : 
			[
				{
					"name" : "HELPSTRING",
					"value" : "No help, variable specified on the command line."
				}
			],
			"type" : "FILEPATH",
			"value" : "C:/Qt/Tools/QtCreator/share/qtcreator/package-manager/auto-setup.cmake"
		},
		{
			"name" : "CMAKE_PROJECT_NAME",
			"properties" : 
			[
				{
					"name" : "HELPSTRING",
					"value" : "Value Computed by CMake"
				}
			],
			"type" : "STATIC",
			"value" : "N-Queen-Problem"
		},
		{
			"name" : "CMAKE_RANLIB",
			"properties" : 
			[
				{
					"name" : "ADVANCED",
					"value" : "1"
				},
				{
					"name" : "HELPSTRING",
					"value" : "Path to a program."
				}
			],
			"type" : "FILEPATH",
			"value" : "C:/Qt/Tools/mingw1120_64/bin/ranlib.exe"
		},
		{
			"name" : "CMAKE_RC_COMPILER",
			"properties" : 
			[
				{
					"name" : "ADVANCED",
					"value" : "1"
				},
				{
					"name" : "HELPSTRING",
					"value" : "RC compiler"
				}
			],
			"type" : "FILEPATH",
			"value" : "C:/Qt/Tools/mingw1120_64/bin/windres.exe"
		},
		{
			"name" : "CMAKE_RC_COMPILER_WORKS",
			"properties" : 
			[
				{
					"name" : "HELPSTRING",
					"value" : ""
				}
			],
			"type" : "INTERNAL",
			"value" : "1"
		},
		{
			"name" : "CMAKE_RC_FLAGS",
			"properties" : 
			[
				{
					"name" : "ADVANCED",
					"value" : "1"
				},
				{
					"name" : "HELPSTRING",
					"value" : "Flags for Windows Resource Compiler during all build types."
				}
			],
			"type" : "STRING",
			"value" : ""
		},
		{
			"name" : "CMAKE_RC_FLAGS_DEBUG",
			"properties" : 
			[
				{
					"name" : "ADVANCED",
					"value" : "1"
				},
				{
					"name" : "HELPSTRING",
					"value" : "Flags for Windows Resource Compiler during DEBUG builds."
				}
			],
			"type" : "STRING",
			"value" : ""
		},
		{
			"name" : "CMAKE_RC_FLAGS_MINSIZEREL",
			"properties" : 
			[
				{
					"name" : "ADVANCED",
					"value" : "1"
				},
				{
					"name" : "HELPSTRING",
					"value" : "Flags for Windows Resource Compiler during MINSIZEREL builds."
				}
			],
			"type" : "STRING",
			"value" : ""
		},
		{
			"name" : "CMAKE_RC_FLAGS_RELEASE",
			"properties" : 
			[
				{
					"name" : "ADVANCED",
					"value" : "1"
				},
				{
					"name" : "HELPSTRING",
					"value" : "Flags for Windows Resource Compiler during RELEASE builds."
				}
			],
			"type" : "STRING",
			"value" : ""
		},
		{
			"name" : "CMAKE_RC_FLAGS_RELWITHDEBINFO",
			"properties" : 
			[
				{
					"name" : "ADVANCED",
					"value" : "1"
				},
				{
					"name" : "HELPSTRING",
					"value" : "Flags for Windows Resource Compiler during RELWITHDEBINFO builds."
				}
			],
			"type" : "STRING",
			"value" : ""
		},
		{
			"name" : "CMAKE_READELF",
			"properties" : 
			[
				{
					"name" : "ADVANCED",
					"value" : "1"
				},
				{
					"name" : "HELPSTRING",
					"value" : "Path to a program."
				}
			],
			"type" : "FILEPATH",
			"value" : "C:/Qt/Tools/mingw1120_64/bin/readelf.exe"
		},
		{
			"name" : "CMAKE_ROOT",
			"properties" : 
			[
				{
					"name" : "HELPSTRING",
					"value" : "Path to CMake installation."
				}
			],
			"type" : "INTERNAL",
			"value" : "C:/Qt/Tools/CMake_64/share/cmake-3.23"
		},
		{
			"name" : "CMAKE_SHARED_LINKER_FLAGS",
			"properties" : 
			[
				{
					"name" : "ADVANCED",
					"value" : "1"
				},
				{
					"name" : "HELPSTRING",
					"value" : "Flags used by the linker during the creation of shared libraries during all build types."
				}
			],
			"type" : "STRING",
			"value" : ""
		},
		{
			"name" : "CMAKE_SHARED_LINKER_FLAGS_DEBUG",
			"properties" : 
			[
				{
					"name" : "ADVANCED",
					"value" : "1"
				},
				{
					"name" : "HELPSTRING",
					"value" : "Flags used by the linker during the creation of shared libraries during DEBUG builds."
				}
			],
			"type" : "STRING",
			"value" : ""
		},
		{
			"name" : "CMAKE_SHARED_LINKER_FLAGS_MINSIZEREL",
			"properties" : 
			[
				{
					"name" : "ADVANCED",
					"value" : "1"
				},
				{
					"name" : "HELPSTRING",
					"value" : "Flags used by the linker during the creation of shared libraries during MINSIZEREL builds."
				}
			],
			"type" : "STRING",
			"value" : ""
		},
		{
			"name" : "CMAKE_SHARED_LINKER_FLAGS_RELEASE",
			"properties" : 
			[
				{
					"name" : "ADVANCED",
					"value" : "1"
				},
				{
					"name" : "HELPSTRING",
					"value" : "Flags used by the linker during the creation of shared libraries during RELEASE builds."
				}
			],
			"type" : "STRING",
			"value" : ""
		},
		{
			"name" : "CMAKE_SHARED_LINKER_FLAGS_RELWITHDEBINFO",
			"properties" : 
			[
				{
					"name" : "ADVANCED",
					"value" : "1"
				},
				{
					"name" : "HELPSTRING",
					"value" : "Flags used by the linker during the creation of shared libraries during RELWITHDEBINFO builds."
				}
			],
			"type" : "STRING",
			"value" : ""
		},
		{
			"name" : "CMAKE_SKIP_INSTALL_RPATH",
			"properties" : 
			[
				{
					"name" : "ADVANCED",
					"value" : "1"
				},
				{
					"name" : "HELPSTRING",
					"value" : "If set, runtime paths are not added when installing shared libraries, but are added when building."
				}
			],
			"type" : "BOOL",
			"value" : "NO"
		},
		{
			"name" : "CMAKE_SKIP_RPATH",
			"properties" : 
			[
				{
					"name" : "ADVANCED",
					"value" : "1"
				},
				{
					"name" : "HELPSTRING",
					"value" : "If set, runtime paths are not added when using shared libraries."
				}
			],
			"type" : "BOOL",
			"value" : "NO"
		},
		{
			"name" : "CMAKE_STATIC_LINKER_FLAGS",
			"properties" : 
			[
				{
					"name" : "ADVANCED",
					"value" : "1"
				},
				{
					"name" : "HELPSTRING",
					"value" : "Flags used by the linker during the creation of static libraries during all build types."
				}
			],
			"type" : "STRING",
			"value" : ""
		},
		{
			"name" : "CMAKE_STATIC_LINKER_FLAGS_DEBUG",
			"properties" : 
			[
				{
					"name" : "ADVANCED",
					"value" : "1"
				},
				{
					"name" : "HELPSTRING",
					"value" : "Flags used by the linker during the creation of static libraries during DEBUG builds."
				}
			],
			"type" : "STRING",
			"value" : ""
		},
		{
			"name" : "CMAKE_STATIC_LINKER_FLAGS_MINSIZEREL",
			"properties" : 
			[
				{
					"name" : "ADVANCED",
					"value" : "1"
				},
				{
					"name" : "HELPSTRING",
					"value" : "Flags used by the linker during the creation of static libraries during MINSIZEREL builds."
				}
			],
			"type" : "STRING",
			"value" : ""
		},
		{
			"name" : "CMAKE_STATIC_LINKER_FLAGS_RELEASE",
			"properties" : 
			[
				{
					"name" : "ADVANCED",
					"value" : "1"
				},
				{
					"name" : "HELPSTRING",
					"value" : "Flags used by the linker during the creation of static libraries during RELEASE builds."
				}
			],
			"type" : "STRING",
			"value" : ""
		},
		{
			"name" : "CMAKE_STATIC_LINKER_FLAGS_RELWITHDEBINFO",
			"properties" : 
			[
				{
					"name" : "ADVANCED",
					"value" : "1"
				},
				{
					"name" : "HELPSTRING",
					"value" : "Flags used by the linker during the creation of static libraries during RELWITHDEBINFO builds."
				}
			],
			"type" : "STRING",
			"value" : ""
		},
		{
			"name" : "CMAKE_STRIP",
			"properties" : 
			[
				{
					"name" : "ADVANCED",
					"value" : "1"
				},
				{
					"name" : "HELPSTRING",
					"value" : "Path to a program."
				}
			],
			"type" : "FILEPATH",
			"value" : "C:/Qt/Tools/mingw1120_64/bin/strip.exe"
		},
		{
			"name" : "CMAKE_VERBOSE_MAKEFILE",
			"properties" : 
			[
				{
					"name" : "ADVANCED",
					"value" : "1"
				},
				{
					"name" : "HELPSTRING",
					"value" : "If this value is on, makefiles will be generated without the .SILENT directive, and all commands will be echoed to the console during the make.  This is useful for debugging only. With Visual Studio IDE projects all commands are done without /nologo."
				}
			],
			"type" : "BOOL",
			"value" : "FALSE"
		},
		{
			"name" : "FIND_PACKAGE_MESSAGE_DETAILS_Threads",
			"properties" : 
			[
				{
					"name" : "HELPSTRING",
					"value" : "Details about finding Threads"
				}
			],
			"type" : "INTERNAL",
			"value" : "[TRUE][v()]"
		},
		{
			"name" : "FIND_PACKAGE_MESSAGE_DETAILS_WrapAtomic",
			"properties" : 
			[
				{
					"name" : "HELPSTRING",
					"value" : "Details about finding WrapAtomic"
				}
			],
			"type" : "INTERNAL",
			"value" : "[1][v()]"
		},
		{
			"name" : "HAVE_STDATOMIC",
			"properties" : 
			[
				{
					"name" : "HELPSTRING",
					"value" : "Test HAVE_STDATOMIC"
				}
			],
			"type" : "INTERNAL",
			"value" : "1"
		},
		{
			"name" : "N-Queen-Problem_BINARY_DIR",
			"properties" : 
			[
				{
					"name" : "HELPSTRING",
					"value" : "Value Computed by CMake"
				}
			],
			"type" : "STATIC",
			"value" : "C:/Users/MDahre/Documents/Projects/Qtsetup/build-N-Queen-Problem-Desktop_Qt_6_3_1_MinGW_64_bit-Debug"
		},
		{
			"name" : "N-Queen-Problem_IS_TOP_LEVEL",
			"properties" : 
			[
				{
					"name" : "HELPSTRING",
					"value" : "Value Computed by CMake"
				}
			],
			"type" : "STATIC",
			"value" : "ON"
		},
		{
			"name" : "N-Queen-Problem_SOURCE_DIR",
			"properties" : 
			[
				{
					"name" : "HELPSTRING",
					"value" : "Value Computed by CMake"
				}
			],
			"type" : "STATIC",
			"value" : "C:/Users/MDahre/Documents/Projects/Qtsetup/N-Queen-Problem"
		},
		{
			"name" : "QT_ADDITIONAL_HOST_PACKAGES_PREFIX_PATH",
			"properties" : 
			[
				{
					"name" : "HELPSTRING",
					"value" : "Additional directories where find(Qt6 ...) host Qt components are searched"
				}
			],
			"type" : "STRING",
			"value" : ""
		},
		{
			"name" : "QT_ADDITIONAL_PACKAGES_PREFIX_PATH",
			"properties" : 
			[
				{
					"name" : "HELPSTRING",
					"value" : "Additional directories where find(Qt6 ...) components are searched"
				}
			],
			"type" : "STRING",
			"value" : ""
		},
		{
			"name" : "QT_CREATOR_SKIP_PACKAGE_MANAGER_SETUP",
			"properties" : 
			[
				{
					"name" : "HELPSTRING",
					"value" : "Skip Qt Creator's package manager auto-setup"
				}
			],
			"type" : "BOOL",
			"value" : "OFF"
		},
		{
			"name" : "QT_DIR",
			"properties" : 
			[
				{
					"name" : "HELPSTRING",
					"value" : "The directory containing a CMake configuration file for QT."
				}
			],
			"type" : "PATH",
			"value" : "C:/Qt/6.3.1/mingw_64/lib/cmake/Qt6"
		},
		{
			"name" : "QT_FEATURE_aesni",
			"properties" : 
			[
				{
					"name" : "HELPSTRING",
					"value" : "Qt feature: aesni (from target Qt6::Core)"
				}
			],
			"type" : "INTERNAL",
			"value" : "ON"
		},
		{
			"name" : "QT_FEATURE_alloca",
			"properties" : 
			[
				{
					"name" : "HELPSTRING",
					"value" : "Qt feature: alloca (from target Qt6::Core)"
				}
			],
			"type" : "INTERNAL",
			"value" : "ON"
		},
		{
			"name" : "QT_FEATURE_alloca_h",
			"properties" : 
			[
				{
					"name" : "HELPSTRING",
					"value" : "Qt feature: alloca_h (from target Qt6::Core)"
				}
			],
			"type" : "INTERNAL",
			"value" : "OFF"
		},
		{
			"name" : "QT_FEATURE_alloca_malloc_h",
			"properties" : 
			[
				{
					"name" : "HELPSTRING",
					"value" : "Qt feature: alloca_malloc_h (from target Qt6::Core)"
				}
			],
			"type" : "INTERNAL",
			"value" : "ON"
		},
		{
			"name" : "QT_FEATURE_android_style_assets",
			"properties" : 
			[
				{
					"name" : "HELPSTRING",
					"value" : "Qt feature: android_style_assets (from target Qt6::Core)"
				}
			],
			"type" : "INTERNAL",
			"value" : "OFF"
		},
		{
			"name" : "QT_FEATURE_animation",
			"properties" : 
			[
				{
					"name" : "HELPSTRING",
					"value" : "Qt feature: animation (from target Qt6::Core)"
				}
			],
			"type" : "INTERNAL",
			"value" : "ON"
		},
		{
			"name" : "QT_FEATURE_appstore_compliant",
			"properties" : 
			[
				{
					"name" : "HELPSTRING",
					"value" : "Qt feature: appstore_compliant (from target Qt6::Core)"
				}
			],
			"type" : "INTERNAL",
			"value" : "OFF"
		},
		{
			"name" : "QT_FEATURE_arm_crc32",
			"properties" : 
			[
				{
					"name" : "HELPSTRING",
					"value" : "Qt feature: arm_crc32 (from target Qt6::Core)"
				}
			],
			"type" : "INTERNAL",
			"value" : "OFF"
		},
		{
			"name" : "QT_FEATURE_arm_crypto",
			"properties" : 
			[
				{
					"name" : "HELPSTRING",
					"value" : "Qt feature: arm_crypto (from target Qt6::Core)"
				}
			],
			"type" : "INTERNAL",
			"value" : "OFF"
		},
		{
			"name" : "QT_FEATURE_avx",
			"properties" : 
			[
				{
					"name" : "HELPSTRING",
					"value" : "Qt feature: avx (from target Qt6::Core)"
				}
			],
			"type" : "INTERNAL",
			"value" : "OFF"
		},
		{
			"name" : "QT_FEATURE_avx2",
			"properties" : 
			[
				{
					"name" : "HELPSTRING",
					"value" : "Qt feature: avx2 (from target Qt6::Core)"
				}
			],
			"type" : "INTERNAL",
			"value" : "OFF"
		},
		{
			"name" : "QT_FEATURE_avx512bw",
			"properties" : 
			[
				{
					"name" : "HELPSTRING",
					"value" : "Qt feature: avx512bw (from target Qt6::Core)"
				}
			],
			"type" : "INTERNAL",
			"value" : "OFF"
		},
		{
			"name" : "QT_FEATURE_avx512cd",
			"properties" : 
			[
				{
					"name" : "HELPSTRING",
					"value" : "Qt feature: avx512cd (from target Qt6::Core)"
				}
			],
			"type" : "INTERNAL",
			"value" : "OFF"
		},
		{
			"name" : "QT_FEATURE_avx512dq",
			"properties" : 
			[
				{
					"name" : "HELPSTRING",
					"value" : "Qt feature: avx512dq (from target Qt6::Core)"
				}
			],
			"type" : "INTERNAL",
			"value" : "OFF"
		},
		{
			"name" : "QT_FEATURE_avx512er",
			"properties" : 
			[
				{
					"name" : "HELPSTRING",
					"value" : "Qt feature: avx512er (from target Qt6::Core)"
				}
			],
			"type" : "INTERNAL",
			"value" : "OFF"
		},
		{
			"name" : "QT_FEATURE_avx512f",
			"properties" : 
			[
				{
					"name" : "HELPSTRING",
					"value" : "Qt feature: avx512f (from target Qt6::Core)"
				}
			],
			"type" : "INTERNAL",
			"value" : "OFF"
		},
		{
			"name" : "QT_FEATURE_avx512ifma",
			"properties" : 
			[
				{
					"name" : "HELPSTRING",
					"value" : "Qt feature: avx512ifma (from target Qt6::Core)"
				}
			],
			"type" : "INTERNAL",
			"value" : "OFF"
		},
		{
			"name" : "QT_FEATURE_avx512pf",
			"properties" : 
			[
				{
					"name" : "HELPSTRING",
					"value" : "Qt feature: avx512pf (from target Qt6::Core)"
				}
			],
			"type" : "INTERNAL",
			"value" : "OFF"
		},
		{
			"name" : "QT_FEATURE_avx512vbmi",
			"properties" : 
			[
				{
					"name" : "HELPSTRING",
					"value" : "Qt feature: avx512vbmi (from target Qt6::Core)"
				}
			],
			"type" : "INTERNAL",
			"value" : "OFF"
		},
		{
			"name" : "QT_FEATURE_avx512vl",
			"properties" : 
			[
				{
					"name" : "HELPSTRING",
					"value" : "Qt feature: avx512vl (from target Qt6::Core)"
				}
			],
			"type" : "INTERNAL",
			"value" : "OFF"
		},
		{
			"name" : "QT_FEATURE_backtrace",
			"properties" : 
			[
				{
					"name" : "HELPSTRING",
					"value" : "Qt feature: backtrace (from target Qt6::Core)"
				}
			],
			"type" : "INTERNAL",
			"value" : "OFF"
		},
		{
			"name" : "QT_FEATURE_c11",
			"properties" : 
			[
				{
					"name" : "HELPSTRING",
					"value" : "Qt feature: c11 (from target Qt6::Core)"
				}
			],
			"type" : "INTERNAL",
			"value" : "ON"
		},
		{
			"name" : "QT_FEATURE_c99",
			"properties" : 
			[
				{
					"name" : "HELPSTRING",
					"value" : "Qt feature: c99 (from target Qt6::Core)"
				}
			],
			"type" : "INTERNAL",
			"value" : "ON"
		},
		{
			"name" : "QT_FEATURE_cborstreamreader",
			"properties" : 
			[
				{
					"name" : "HELPSTRING",
					"value" : "Qt feature: cborstreamreader (from target Qt6::Core)"
				}
			],
			"type" : "INTERNAL",
			"value" : "ON"
		},
		{
			"name" : "QT_FEATURE_cborstreamwriter",
			"properties" : 
			[
				{
					"name" : "HELPSTRING",
					"value" : "Qt feature: cborstreamwriter (from target Qt6::Core)"
				}
			],
			"type" : "INTERNAL",
			"value" : "ON"
		},
		{
			"name" : "QT_FEATURE_clock_gettime",
			"properties" : 
			[
				{
					"name" : "HELPSTRING",
					"value" : "Qt feature: clock_gettime (from target Qt6::Core)"
				}
			],
			"type" : "INTERNAL",
			"value" : "OFF"
		},
		{
			"name" : "QT_FEATURE_clock_monotonic",
			"properties" : 
			[
				{
					"name" : "HELPSTRING",
					"value" : "Qt feature: clock_monotonic (from target Qt6::Core)"
				}
			],
			"type" : "INTERNAL",
			"value" : "OFF"
		},
		{
			"name" : "QT_FEATURE_commandlineparser",
			"properties" : 
			[
				{
					"name" : "HELPSTRING",
					"value" : "Qt feature: commandlineparser (from target Qt6::Core)"
				}
			],
			"type" : "INTERNAL",
			"value" : "ON"
		},
		{
			"name" : "QT_FEATURE_concatenatetablesproxymodel",
			"properties" : 
			[
				{
					"name" : "HELPSTRING",
					"value" : "Qt feature: concatenatetablesproxymodel (from target Qt6::Core)"
				}
			],
			"type" : "INTERNAL",
			"value" : "ON"
		},
		{
			"name" : "QT_FEATURE_concurrent",
			"properties" : 
			[
				{
					"name" : "HELPSTRING",
					"value" : "Qt feature: concurrent (from target Qt6::Core)"
				}
			],
			"type" : "INTERNAL",
			"value" : "ON"
		},
		{
			"name" : "QT_FEATURE_cpp_winrt",
			"properties" : 
			[
				{
					"name" : "HELPSTRING",
					"value" : "Qt feature: cpp_winrt (from target Qt6::Core)"
				}
			],
			"type" : "INTERNAL",
			"value" : "OFF"
		},
		{
			"name" : "QT_FEATURE_cross_compile",
			"properties" : 
			[
				{
					"name" : "HELPSTRING",
					"value" : "Qt feature: cross_compile (from target Qt6::Core)"
				}
			],
			"type" : "INTERNAL",
			"value" : "OFF"
		},
		{
			"name" : "QT_FEATURE_cxx11",
			"properties" : 
			[
				{
					"name" : "HELPSTRING",
					"value" : "Qt feature: cxx11 (from target Qt6::Core)"
				}
			],
			"type" : "INTERNAL",
			"value" : "ON"
		},
		{
			"name" : "QT_FEATURE_cxx11_future",
			"properties" : 
			[
				{
					"name" : "HELPSTRING",
					"value" : "Qt feature: cxx11_future (from target Qt6::Core)"
				}
			],
			"type" : "INTERNAL",
			"value" : "ON"
		},
		{
			"name" : "QT_FEATURE_cxx14",
			"properties" : 
			[
				{
					"name" : "HELPSTRING",
					"value" : "Qt feature: cxx14 (from target Qt6::Core)"
				}
			],
			"type" : "INTERNAL",
			"value" : "ON"
		},
		{
			"name" : "QT_FEATURE_cxx17",
			"properties" : 
			[
				{
					"name" : "HELPSTRING",
					"value" : "Qt feature: cxx17 (from target Qt6::Core)"
				}
			],
			"type" : "INTERNAL",
			"value" : "ON"
		},
		{
			"name" : "QT_FEATURE_cxx17_filesystem",
			"properties" : 
			[
				{
					"name" : "HELPSTRING",
					"value" : "Qt feature: cxx17_filesystem (from target Qt6::Core)"
				}
			],
			"type" : "INTERNAL",
			"value" : "ON"
		},
		{
			"name" : "QT_FEATURE_cxx1z",
			"properties" : 
			[
				{
					"name" : "HELPSTRING",
					"value" : "Qt feature: cxx1z (from target Qt6::Core)"
				}
			],
			"type" : "INTERNAL",
			"value" : "ON"
		},
		{
			"name" : "QT_FEATURE_cxx20",
			"properties" : 
			[
				{
					"name" : "HELPSTRING",
					"value" : "Qt feature: cxx20 (from target Qt6::Core)"
				}
			],
			"type" : "INTERNAL",
			"value" : "OFF"
		},
		{
			"name" : "QT_FEATURE_cxx2a",
			"properties" : 
			[
				{
					"name" : "HELPSTRING",
					"value" : "Qt feature: cxx2a (from target Qt6::Core)"
				}
			],
			"type" : "INTERNAL",
			"value" : "OFF"
		},
		{
			"name" : "QT_FEATURE_cxx2b",
			"properties" : 
			[
				{
					"name" : "HELPSTRING",
					"value" : "Qt feature: cxx2b (from target Qt6::Core)"
				}
			],
			"type" : "INTERNAL",
			"value" : "OFF"
		},
		{
			"name" : "QT_FEATURE_datestring",
			"properties" : 
			[
				{
					"name" : "HELPSTRING",
					"value" : "Qt feature: datestring (from target Qt6::Core)"
				}
			],
			"type" : "INTERNAL",
			"value" : "ON"
		},
		{
			"name" : "QT_FEATURE_datetimeparser",
			"properties" : 
			[
				{
					"name" : "HELPSTRING",
					"value" : "Qt feature: datetimeparser (from target Qt6::Core)"
				}
			],
			"type" : "INTERNAL",
			"value" : "ON"
		},
		{
			"name" : "QT_FEATURE_dbus",
			"properties" : 
			[
				{
					"name" : "HELPSTRING",
					"value" : "Qt feature: dbus (from target Qt6::Core)"
				}
			],
			"type" : "INTERNAL",
			"value" : "ON"
		},
		{
			"name" : "QT_FEATURE_dbus_linked",
			"properties" : 
			[
				{
					"name" : "HELPSTRING",
					"value" : "Qt feature: dbus_linked (from target Qt6::Core)"
				}
			],
			"type" : "INTERNAL",
			"value" : "OFF"
		},
		{
			"name" : "QT_FEATURE_debug",
			"properties" : 
			[
				{
					"name" : "HELPSTRING",
					"value" : "Qt feature: debug (from target Qt6::Core)"
				}
			],
			"type" : "INTERNAL",
			"value" : "OFF"
		},
		{
			"name" : "QT_FEATURE_debug_and_release",
			"properties" : 
			[
				{
					"name" : "HELPSTRING",
					"value" : "Qt feature: debug_and_release (from target Qt6::Core)"
				}
			],
			"type" : "INTERNAL",
			"value" : "OFF"
		},
		{
			"name" : "QT_FEATURE_developer_build",
			"properties" : 
			[
				{
					"name" : "HELPSTRING",
					"value" : "Qt feature: developer_build (from target Qt6::Core)"
				}
			],
			"type" : "INTERNAL",
			"value" : "OFF"
		},
		{
			"name" : "QT_FEATURE_dlopen",
			"properties" : 
			[
				{
					"name" : "HELPSTRING",
					"value" : "Qt feature: dlopen (from target Qt6::Core)"
				}
			],
			"type" : "INTERNAL",
			"value" : "OFF"
		},
		{
			"name" : "QT_FEATURE_doubleconversion",
			"properties" : 
			[
				{
					"name" : "HELPSTRING",
					"value" : "Qt feature: doubleconversion (from target Qt6::Core)"
				}
			],
			"type" : "INTERNAL",
			"value" : "ON"
		},
		{
			"name" : "QT_FEATURE_easingcurve",
			"properties" : 
			[
				{
					"name" : "HELPSTRING",
					"value" : "Qt feature: easingcurve (from target Qt6::Core)"
				}
			],
			"type" : "INTERNAL",
			"value" : "ON"
		},
		{
			"name" : "QT_FEATURE_etw",
			"properties" : 
			[
				{
					"name" : "HELPSTRING",
					"value" : "Qt feature: etw (from target Qt6::Core)"
				}
			],
			"type" : "INTERNAL",
			"value" : "OFF"
		},
		{
			"name" : "QT_FEATURE_eventfd",
			"properties" : 
			[
				{
					"name" : "HELPSTRING",
					"value" : "Qt feature: eventfd (from target Qt6::Core)"
				}
			],
			"type" : "INTERNAL",
			"value" : "OFF"
		},
		{
			"name" : "QT_FEATURE_f16c",
			"properties" : 
			[
				{
					"name" : "HELPSTRING",
					"value" : "Qt feature: f16c (from target Qt6::Core)"
				}
			],
			"type" : "INTERNAL",
			"value" : "OFF"
		},
		{
			"name" : "QT_FEATURE_filesystemiterator",
			"properties" : 
			[
				{
					"name" : "HELPSTRING",
					"value" : "Qt feature: filesystemiterator (from target Qt6::Core)"
				}
			],
			"type" : "INTERNAL",
			"value" : "ON"
		},
		{
			"name" : "QT_FEATURE_filesystemwatcher",
			"properties" : 
			[
				{
					"name" : "HELPSTRING",
					"value" : "Qt feature: filesystemwatcher (from target Qt6::Core)"
				}
			],
			"type" : "INTERNAL",
			"value" : "ON"
		},
		{
			"name" : "QT_FEATURE_force_asserts",
			"properties" : 
			[
				{
					"name" : "HELPSTRING",
					"value" : "Qt feature: force_asserts (from target Qt6::Core)"
				}
			],
			"type" : "INTERNAL",
			"value" : "OFF"
		},
		{
			"name" : "QT_FEATURE_force_debug_info",
			"properties" : 
			[
				{
					"name" : "HELPSTRING",
					"value" : "Qt feature: force_debug_info (from target Qt6::Core)"
				}
			],
			"type" : "INTERNAL",
			"value" : "ON"
		},
		{
			"name" : "QT_FEATURE_forkfd_pidfd",
			"properties" : 
			[
				{
					"name" : "HELPSTRING",
					"value" : "Qt feature: forkfd_pidfd (from target Qt6::Core)"
				}
			],
			"type" : "INTERNAL",
			"value" : "OFF"
		},
		{
			"name" : "QT_FEATURE_framework",
			"properties" : 
			[
				{
					"name" : "HELPSTRING",
					"value" : "Qt feature: framework (from target Qt6::Core)"
				}
			],
			"type" : "INTERNAL",
			"value" : "OFF"
		},
		{
			"name" : "QT_FEATURE_futimens",
			"properties" : 
			[
				{
					"name" : "HELPSTRING",
					"value" : "Qt feature: futimens (from target Qt6::Core)"
				}
			],
			"type" : "INTERNAL",
			"value" : "OFF"
		},
		{
			"name" : "QT_FEATURE_futimes",
			"properties" : 
			[
				{
					"name" : "HELPSTRING",
					"value" : "Qt feature: futimes (from target Qt6::Core)"
				}
			],
			"type" : "INTERNAL",
			"value" : "OFF"
		},
		{
			"name" : "QT_FEATURE_future",
			"properties" : 
			[
				{
					"name" : "HELPSTRING",
					"value" : "Qt feature: future (from target Qt6::Core)"
				}
			],
			"type" : "INTERNAL",
			"value" : "ON"
		},
		{
			"name" : "QT_FEATURE_gc_binaries",
			"properties" : 
			[
				{
					"name" : "HELPSTRING",
					"value" : "Qt feature: gc_binaries (from target Qt6::Core)"
				}
			],
			"type" : "INTERNAL",
			"value" : "OFF"
		},
		{
			"name" : "QT_FEATURE_gestures",
			"properties" : 
			[
				{
					"name" : "HELPSTRING",
					"value" : "Qt feature: gestures (from target Qt6::Core)"
				}
			],
			"type" : "INTERNAL",
			"value" : "ON"
		},
		{
			"name" : "QT_FEATURE_getauxval",
			"properties" : 
			[
				{
					"name" : "HELPSTRING",
					"value" : "Qt feature: getauxval (from target Qt6::Core)"
				}
			],
			"type" : "INTERNAL",
			"value" : "OFF"
		},
		{
			"name" : "QT_FEATURE_getentropy",
			"properties" : 
			[
				{
					"name" : "HELPSTRING",
					"value" : "Qt feature: getentropy (from target Qt6::Core)"
				}
			],
			"type" : "INTERNAL",
			"value" : "OFF"
		},
		{
			"name" : "QT_FEATURE_glib",
			"properties" : 
			[
				{
					"name" : "HELPSTRING",
					"value" : "Qt feature: glib (from target Qt6::Core)"
				}
			],
			"type" : "INTERNAL",
			"value" : "OFF"
		},
		{
			"name" : "QT_FEATURE_glibc",
			"properties" : 
			[
				{
					"name" : "HELPSTRING",
					"value" : "Qt feature: glibc (from target Qt6::Core)"
				}
			],
			"type" : "INTERNAL",
			"value" : "OFF"
		},
		{
			"name" : "QT_FEATURE_gui",
			"properties" : 
			[
				{
					"name" : "HELPSTRING",
					"value" : "Qt feature: gui (from target Qt6::Core)"
				}
			],
			"type" : "INTERNAL",
			"value" : "ON"
		},
		{
			"name" : "QT_FEATURE_hijricalendar",
			"properties" : 
			[
				{
					"name" : "HELPSTRING",
					"value" : "Qt feature: hijricalendar (from target Qt6::Core)"
				}
			],
			"type" : "INTERNAL",
			"value" : "ON"
		},
		{
			"name" : "QT_FEATURE_icu",
			"properties" : 
			[
				{
					"name" : "HELPSTRING",
					"value" : "Qt feature: icu (from target Qt6::Core)"
				}
			],
			"type" : "INTERNAL",
			"value" : "OFF"
		},
		{
			"name" : "QT_FEATURE_identityproxymodel",
			"properties" : 
			[
				{
					"name" : "HELPSTRING",
					"value" : "Qt feature: identityproxymodel (from target Qt6::Core)"
				}
			],
			"type" : "INTERNAL",
			"value" : "ON"
		},
		{
			"name" : "QT_FEATURE_inotify",
			"properties" : 
			[
				{
					"name" : "HELPSTRING",
					"value" : "Qt feature: inotify (from target Qt6::Core)"
				}
			],
			"type" : "INTERNAL",
			"value" : "OFF"
		},
		{
			"name" : "QT_FEATURE_intelcet",
			"properties" : 
			[
				{
					"name" : "HELPSTRING",
					"value" : "Qt feature: intelcet (from target Qt6::Core)"
				}
			],
			"type" : "INTERNAL",
			"value" : "OFF"
		},
		{
			"name" : "QT_FEATURE_islamiccivilcalendar",
			"properties" : 
			[
				{
					"name" : "HELPSTRING",
					"value" : "Qt feature: islamiccivilcalendar (from target Qt6::Core)"
				}
			],
			"type" : "INTERNAL",
			"value" : "ON"
		},
		{
			"name" : "QT_FEATURE_itemmodel",
			"properties" : 
			[
				{
					"name" : "HELPSTRING",
					"value" : "Qt feature: itemmodel (from target Qt6::Core)"
				}
			],
			"type" : "INTERNAL",
			"value" : "ON"
		},
		{
			"name" : "QT_FEATURE_jalalicalendar",
			"properties" : 
			[
				{
					"name" : "HELPSTRING",
					"value" : "Qt feature: jalalicalendar (from target Qt6::Core)"
				}
			],
			"type" : "INTERNAL",
			"value" : "ON"
		},
		{
			"name" : "QT_FEATURE_journald",
			"properties" : 
			[
				{
					"name" : "HELPSTRING",
					"value" : "Qt feature: journald (from target Qt6::Core)"
				}
			],
			"type" : "INTERNAL",
			"value" : "OFF"
		},
		{
			"name" : "QT_FEATURE_largefile",
			"properties" : 
			[
				{
					"name" : "HELPSTRING",
					"value" : "Qt feature: largefile (from target Qt6::Core)"
				}
			],
			"type" : "INTERNAL",
			"value" : "ON"
		},
		{
			"name" : "QT_FEATURE_library",
			"properties" : 
			[
				{
					"name" : "HELPSTRING",
					"value" : "Qt feature: library (from target Qt6::Core)"
				}
			],
			"type" : "INTERNAL",
			"value" : "ON"
		},
		{
			"name" : "QT_FEATURE_libudev",
			"properties" : 
			[
				{
					"name" : "HELPSTRING",
					"value" : "Qt feature: libudev (from target Qt6::Core)"
				}
			],
			"type" : "INTERNAL",
			"value" : "OFF"
		},
		{
			"name" : "QT_FEATURE_linkat",
			"properties" : 
			[
				{
					"name" : "HELPSTRING",
					"value" : "Qt feature: linkat (from target Qt6::Core)"
				}
			],
			"type" : "INTERNAL",
			"value" : "OFF"
		},
		{
			"name" : "QT_FEATURE_lttng",
			"properties" : 
			[
				{
					"name" : "HELPSTRING",
					"value" : "Qt feature: lttng (from target Qt6::Core)"
				}
			],
			"type" : "INTERNAL",
			"value" : "OFF"
		},
		{
			"name" : "QT_FEATURE_mimetype",
			"properties" : 
			[
				{
					"name" : "HELPSTRING",
					"value" : "Qt feature: mimetype (from target Qt6::Core)"
				}
			],
			"type" : "INTERNAL",
			"value" : "ON"
		},
		{
			"name" : "QT_FEATURE_mimetype_database",
			"properties" : 
			[
				{
					"name" : "HELPSTRING",
					"value" : "Qt feature: mimetype_database (from target Qt6::Core)"
				}
			],
			"type" : "INTERNAL",
			"value" : "ON"
		},
		{
			"name" : "QT_FEATURE_mips_dsp",
			"properties" : 
			[
				{
					"name" : "HELPSTRING",
					"value" : "Qt feature: mips_dsp (from target Qt6::Core)"
				}
			],
			"type" : "INTERNAL",
			"value" : "OFF"
		},
		{
			"name" : "QT_FEATURE_mips_dspr2",
			"properties" : 
			[
				{
					"name" : "HELPSTRING",
					"value" : "Qt feature: mips_dspr2 (from target Qt6::Core)"
				}
			],
			"type" : "INTERNAL",
			"value" : "OFF"
		},
		{
			"name" : "QT_FEATURE_neon",
			"properties" : 
			[
				{
					"name" : "HELPSTRING",
					"value" : "Qt feature: neon (from target Qt6::Core)"
				}
			],
			"type" : "INTERNAL",
			"value" : "OFF"
		},
		{
			"name" : "QT_FEATURE_network",
			"properties" : 
			[
				{
					"name" : "HELPSTRING",
					"value" : "Qt feature: network (from target Qt6::Core)"
				}
			],
			"type" : "INTERNAL",
			"value" : "ON"
		},
		{
			"name" : "QT_FEATURE_no_pkg_config",
			"properties" : 
			[
				{
					"name" : "HELPSTRING",
					"value" : "Qt feature: no_pkg_config (from target Qt6::Core)"
				}
			],
			"type" : "INTERNAL",
			"value" : "ON"
		},
		{
			"name" : "QT_FEATURE_no_prefix",
			"properties" : 
			[
				{
					"name" : "HELPSTRING",
					"value" : "Qt feature: no_prefix (from target Qt6::Core)"
				}
			],
			"type" : "INTERNAL",
			"value" : "OFF"
		},
		{
			"name" : "QT_FEATURE_pcre2",
			"properties" : 
			[
				{
					"name" : "HELPSTRING",
					"value" : "Qt feature: pcre2 (from target Qt6::Core)"
				}
			],
			"type" : "INTERNAL",
			"value" : "ON"
		},
		{
			"name" : "QT_FEATURE_pkg_config",
			"properties" : 
			[
				{
					"name" : "HELPSTRING",
					"value" : "Qt feature: pkg_config (from target Qt6::Core)"
				}
			],
			"type" : "INTERNAL",
			"value" : "OFF"
		},
		{
			"name" : "QT_FEATURE_plugin_manifest",
			"properties" : 
			[
				{
					"name" : "HELPSTRING",
					"value" : "Qt feature: plugin_manifest (from target Qt6::Core)"
				}
			],
			"type" : "INTERNAL",
			"value" : "ON"
		},
		{
			"name" : "QT_FEATURE_poll_poll",
			"properties" : 
			[
				{
					"name" : "HELPSTRING",
					"value" : "Qt feature: poll_poll (from target Qt6::Core)"
				}
			],
			"type" : "INTERNAL",
			"value" : "OFF"
		},
		{
			"name" : "QT_FEATURE_poll_pollts",
			"properties" : 
			[
				{
					"name" : "HELPSTRING",
					"value" : "Qt feature: poll_pollts (from target Qt6::Core)"
				}
			],
			"type" : "INTERNAL",
			"value" : "OFF"
		},
		{
			"name" : "QT_FEATURE_poll_ppoll",
			"properties" : 
			[
				{
					"name" : "HELPSTRING",
					"value" : "Qt feature: poll_ppoll (from target Qt6::Core)"
				}
			],
			"type" : "INTERNAL",
			"value" : "OFF"
		},
		{
			"name" : "QT_FEATURE_poll_select",
			"properties" : 
			[
				{
					"name" : "HELPSTRING",
					"value" : "Qt feature: poll_select (from target Qt6::Core)"
				}
			],
			"type" : "INTERNAL",
			"value" : "OFF"
		},
		{
			"name" : "QT_FEATURE_posix_fallocate",
			"properties" : 
			[
				{
					"name" : "HELPSTRING",
					"value" : "Qt feature: posix_fallocate (from target Qt6::Core)"
				}
			],
			"type" : "INTERNAL",
			"value" : "OFF"
		},
		{
			"name" : "QT_FEATURE_precompile_header",
			"properties" : 
			[
				{
					"name" : "HELPSTRING",
					"value" : "Qt feature: precompile_header (from target Qt6::Core)"
				}
			],
			"type" : "INTERNAL",
			"value" : "ON"
		},
		{
			"name" : "QT_FEATURE_printsupport",
			"properties" : 
			[
				{
					"name" : "HELPSTRING",
					"value" : "Qt feature: printsupport (from target Qt6::Core)"
				}
			],
			"type" : "INTERNAL",
			"value" : "ON"
		},
		{
			"name" : "QT_FEATURE_private_tests",
			"properties" : 
			[
				{
					"name" : "HELPSTRING",
					"value" : "Qt feature: private_tests (from target Qt6::Core)"
				}
			],
			"type" : "INTERNAL",
			"value" : "OFF"
		},
		{
			"name" : "QT_FEATURE_process",
			"properties" : 
			[
				{
					"name" : "HELPSTRING",
					"value" : "Qt feature: process (from target Qt6::Core)"
				}
			],
			"type" : "INTERNAL",
			"value" : "ON"
		},
		{
			"name" : "QT_FEATURE_processenvironment",
			"properties" : 
			[
				{
					"name" : "HELPSTRING",
					"value" : "Qt feature: processenvironment (from target Qt6::Core)"
				}
			],
			"type" : "INTERNAL",
			"value" : "ON"
		},
		{
			"name" : "QT_FEATURE_properties",
			"properties" : 
			[
				{
					"name" : "HELPSTRING",
					"value" : "Qt feature: properties (from target Qt6::Core)"
				}
			],
			"type" : "INTERNAL",
			"value" : "ON"
		},
		{
			"name" : "QT_FEATURE_proxymodel",
			"properties" : 
			[
				{
					"name" : "HELPSTRING",
					"value" : "Qt feature: proxymodel (from target Qt6::Core)"
				}
			],
			"type" : "INTERNAL",
			"value" : "ON"
		},
		{
			"name" : "QT_FEATURE_qqnx_pps",
			"properties" : 
			[
				{
					"name" : "HELPSTRING",
					"value" : "Qt feature: qqnx_pps (from target Qt6::Core)"
				}
			],
			"type" : "INTERNAL",
			"value" : "OFF"
		},
		{
			"name" : "QT_FEATURE_rdrnd",
			"properties" : 
			[
				{
					"name" : "HELPSTRING",
					"value" : "Qt feature: rdrnd (from target Qt6::Core)"
				}
			],
			"type" : "INTERNAL",
			"value" : "ON"
		},
		{
			"name" : "QT_FEATURE_rdseed",
			"properties" : 
			[
				{
					"name" : "HELPSTRING",
					"value" : "Qt feature: rdseed (from target Qt6::Core)"
				}
			],
			"type" : "INTERNAL",
			"value" : "ON"
		},
		{
			"name" : "QT_FEATURE_reduce_exports",
			"properties" : 
			[
				{
					"name" : "HELPSTRING",
					"value" : "Qt feature: reduce_exports (from target Qt6::Core)"
				}
			],
			"type" : "INTERNAL",
			"value" : "ON"
		},
		{
			"name" : "QT_FEATURE_reduce_relocations",
			"properties" : 
			[
				{
					"name" : "HELPSTRING",
					"value" : "Qt feature: reduce_relocations (from target Qt6::Core)"
				}
			],
			"type" : "INTERNAL",
			"value" : "OFF"
		},
		{
			"name" : "QT_FEATURE_regularexpression",
			"properties" : 
			[
				{
					"name" : "HELPSTRING",
					"value" : "Qt feature: regularexpression (from target Qt6::Core)"
				}
			],
			"type" : "INTERNAL",
			"value" : "ON"
		},
		{
			"name" : "QT_FEATURE_relocatable",
			"properties" : 
			[
				{
					"name" : "HELPSTRING",
					"value" : "Qt feature: relocatable (from target Qt6::Core)"
				}
			],
			"type" : "INTERNAL",
			"value" : "ON"
		},
		{
			"name" : "QT_FEATURE_renameat2",
			"properties" : 
			[
				{
					"name" : "HELPSTRING",
					"value" : "Qt feature: renameat2 (from target Qt6::Core)"
				}
			],
			"type" : "INTERNAL",
			"value" : "OFF"
		},
		{
			"name" : "QT_FEATURE_rpath",
			"properties" : 
			[
				{
					"name" : "HELPSTRING",
					"value" : "Qt feature: rpath (from target Qt6::Core)"
				}
			],
			"type" : "INTERNAL",
			"value" : "OFF"
		},
		{
			"name" : "QT_FEATURE_separate_debug_info",
			"properties" : 
			[
				{
					"name" : "HELPSTRING",
					"value" : "Qt feature: separate_debug_info (from target Qt6::Core)"
				}
			],
			"type" : "INTERNAL",
			"value" : "ON"
		},
		{
			"name" : "QT_FEATURE_settings",
			"properties" : 
			[
				{
					"name" : "HELPSTRING",
					"value" : "Qt feature: settings (from target Qt6::Core)"
				}
			],
			"type" : "INTERNAL",
			"value" : "ON"
		},
		{
			"name" : "QT_FEATURE_sha3_fast",
			"properties" : 
			[
				{
					"name" : "HELPSTRING",
					"value" : "Qt feature: sha3_fast (from target Qt6::Core)"
				}
			],
			"type" : "INTERNAL",
			"value" : "ON"
		},
		{
			"name" : "QT_FEATURE_shani",
			"properties" : 
			[
				{
					"name" : "HELPSTRING",
					"value" : "Qt feature: shani (from target Qt6::Core)"
				}
			],
			"type" : "INTERNAL",
			"value" : "ON"
		},
		{
			"name" : "QT_FEATURE_shared",
			"properties" : 
			[
				{
					"name" : "HELPSTRING",
					"value" : "Qt feature: shared (from target Qt6::Core)"
				}
			],
			"type" : "INTERNAL",
			"value" : "ON"
		},
		{
			"name" : "QT_FEATURE_sharedmemory",
			"properties" : 
			[
				{
					"name" : "HELPSTRING",
					"value" : "Qt feature: sharedmemory (from target Qt6::Core)"
				}
			],
			"type" : "INTERNAL",
			"value" : "ON"
		},
		{
			"name" : "QT_FEATURE_shortcut",
			"properties" : 
			[
				{
					"name" : "HELPSTRING",
					"value" : "Qt feature: shortcut (from target Qt6::Core)"
				}
			],
			"type" : "INTERNAL",
			"value" : "ON"
		},
		{
			"name" : "QT_FEATURE_signaling_nan",
			"properties" : 
			[
				{
					"name" : "HELPSTRING",
					"value" : "Qt feature: signaling_nan (from target Qt6::Core)"
				}
			],
			"type" : "INTERNAL",
			"value" : "ON"
		},
		{
			"name" : "QT_FEATURE_simdAlways",
			"properties" : 
			[
				{
					"name" : "HELPSTRING",
					"value" : "Qt feature: simdAlways (from target Qt6::Core)"
				}
			],
			"type" : "INTERNAL",
			"value" : "ON"
		},
		{
			"name" : "QT_FEATURE_simulator_and_device",
			"properties" : 
			[
				{
					"name" : "HELPSTRING",
					"value" : "Qt feature: simulator_and_device (from target Qt6::Core)"
				}
			],
			"type" : "INTERNAL",
			"value" : "OFF"
		},
		{
			"name" : "QT_FEATURE_slog2",
			"properties" : 
			[
				{
					"name" : "HELPSTRING",
					"value" : "Qt feature: slog2 (from target Qt6::Core)"
				}
			],
			"type" : "INTERNAL",
			"value" : "OFF"
		},
		{
			"name" : "QT_FEATURE_sortfilterproxymodel",
			"properties" : 
			[
				{
					"name" : "HELPSTRING",
					"value" : "Qt feature: sortfilterproxymodel (from target Qt6::Core)"
				}
			],
			"type" : "INTERNAL",
			"value" : "ON"
		},
		{
			"name" : "QT_FEATURE_sql",
			"properties" : 
			[
				{
					"name" : "HELPSTRING",
					"value" : "Qt feature: sql (from target Qt6::Core)"
				}
			],
			"type" : "INTERNAL",
			"value" : "ON"
		},
		{
			"name" : "QT_FEATURE_sse2",
			"properties" : 
			[
				{
					"name" : "HELPSTRING",
					"value" : "Qt feature: sse2 (from target Qt6::Core)"
				}
			],
			"type" : "INTERNAL",
			"value" : "ON"
		},
		{
			"name" : "QT_FEATURE_sse3",
			"properties" : 
			[
				{
					"name" : "HELPSTRING",
					"value" : "Qt feature: sse3 (from target Qt6::Core)"
				}
			],
			"type" : "INTERNAL",
			"value" : "ON"
		},
		{
			"name" : "QT_FEATURE_sse4_1",
			"properties" : 
			[
				{
					"name" : "HELPSTRING",
					"value" : "Qt feature: sse4_1 (from target Qt6::Core)"
				}
			],
			"type" : "INTERNAL",
			"value" : "ON"
		},
		{
			"name" : "QT_FEATURE_sse4_2",
			"properties" : 
			[
				{
					"name" : "HELPSTRING",
					"value" : "Qt feature: sse4_2 (from target Qt6::Core)"
				}
			],
			"type" : "INTERNAL",
			"value" : "ON"
		},
		{
			"name" : "QT_FEATURE_ssse3",
			"properties" : 
			[
				{
					"name" : "HELPSTRING",
					"value" : "Qt feature: ssse3 (from target Qt6::Core)"
				}
			],
			"type" : "INTERNAL",
			"value" : "ON"
		},
		{
			"name" : "QT_FEATURE_stack_protector_strong",
			"properties" : 
			[
				{
					"name" : "HELPSTRING",
					"value" : "Qt feature: stack_protector_strong (from target Qt6::Core)"
				}
			],
			"type" : "INTERNAL",
			"value" : "OFF"
		},
		{
			"name" : "QT_FEATURE_static",
			"properties" : 
			[
				{
					"name" : "HELPSTRING",
					"value" : "Qt feature: static (from target Qt6::Core)"
				}
			],
			"type" : "INTERNAL",
			"value" : "OFF"
		},
		{
			"name" : "QT_FEATURE_statx",
			"properties" : 
			[
				{
					"name" : "HELPSTRING",
					"value" : "Qt feature: statx (from target Qt6::Core)"
				}
			],
			"type" : "INTERNAL",
			"value" : "OFF"
		},
		{
			"name" : "QT_FEATURE_std_atomic64",
			"properties" : 
			[
				{
					"name" : "HELPSTRING",
					"value" : "Qt feature: std_atomic64 (from target Qt6::Core)"
				}
			],
			"type" : "INTERNAL",
			"value" : "ON"
		},
		{
			"name" : "QT_FEATURE_stdlib_libcpp",
			"properties" : 
			[
				{
					"name" : "HELPSTRING",
					"value" : "Qt feature: stdlib_libcpp (from target Qt6::Core)"
				}
			],
			"type" : "INTERNAL",
			"value" : "OFF"
		},
		{
			"name" : "QT_FEATURE_stringlistmodel",
			"properties" : 
			[
				{
					"name" : "HELPSTRING",
					"value" : "Qt feature: stringlistmodel (from target Qt6::Core)"
				}
			],
			"type" : "INTERNAL",
			"value" : "ON"
		},
		{
			"name" : "QT_FEATURE_syslog",
			"properties" : 
			[
				{
					"name" : "HELPSTRING",
					"value" : "Qt feature: syslog (from target Qt6::Core)"
				}
			],
			"type" : "INTERNAL",
			"value" : "OFF"
		},
		{
			"name" : "QT_FEATURE_system_doubleconversion",
			"properties" : 
			[
				{
					"name" : "HELPSTRING",
					"value" : "Qt feature: system_doubleconversion (from target Qt6::Core)"
				}
			],
			"type" : "INTERNAL",
			"value" : "OFF"
		},
		{
			"name" : "QT_FEATURE_system_libb2",
			"properties" : 
			[
				{
					"name" : "HELPSTRING",
					"value" : "Qt feature: system_libb2 (from target Qt6::Core)"
				}
			],
			"type" : "INTERNAL",
			"value" : "OFF"
		},
		{
			"name" : "QT_FEATURE_system_pcre2",
			"properties" : 
			[
				{
					"name" : "HELPSTRING",
					"value" : "Qt feature: system_pcre2 (from target Qt6::Core)"
				}
			],
			"type" : "INTERNAL",
			"value" : "OFF"
		},
		{
			"name" : "QT_FEATURE_system_zlib",
			"properties" : 
			[
				{
					"name" : "HELPSTRING",
					"value" : "Qt feature: system_zlib (from target Qt6::Core)"
				}
			],
			"type" : "INTERNAL",
			"value" : "OFF"
		},
		{
			"name" : "QT_FEATURE_systemsemaphore",
			"properties" : 
			[
				{
					"name" : "HELPSTRING",
					"value" : "Qt feature: systemsemaphore (from target Qt6::Core)"
				}
			],
			"type" : "INTERNAL",
			"value" : "ON"
		},
		{
			"name" : "QT_FEATURE_temporaryfile",
			"properties" : 
			[
				{
					"name" : "HELPSTRING",
					"value" : "Qt feature: temporaryfile (from target Qt6::Core)"
				}
			],
			"type" : "INTERNAL",
			"value" : "ON"
		},
		{
			"name" : "QT_FEATURE_testlib",
			"properties" : 
			[
				{
					"name" : "HELPSTRING",
					"value" : "Qt feature: testlib (from target Qt6::Core)"
				}
			],
			"type" : "INTERNAL",
			"value" : "ON"
		},
		{
			"name" : "QT_FEATURE_textdate",
			"properties" : 
			[
				{
					"name" : "HELPSTRING",
					"value" : "Qt feature: textdate (from target Qt6::Core)"
				}
			],
			"type" : "INTERNAL",
			"value" : "ON"
		},
		{
			"name" : "QT_FEATURE_thread",
			"properties" : 
			[
				{
					"name" : "HELPSTRING",
					"value" : "Qt feature: thread (from target Qt6::Core)"
				}
			],
			"type" : "INTERNAL",
			"value" : "ON"
		},
		{
			"name" : "QT_FEATURE_timezone",
			"properties" : 
			[
				{
					"name" : "HELPSTRING",
					"value" : "Qt feature: timezone (from target Qt6::Core)"
				}
			],
			"type" : "INTERNAL",
			"value" : "ON"
		},
		{
			"name" : "QT_FEATURE_translation",
			"properties" : 
			[
				{
					"name" : "HELPSTRING",
					"value" : "Qt feature: translation (from target Qt6::Core)"
				}
			],
			"type" : "INTERNAL",
			"value" : "ON"
		},
		{
			"name" : "QT_FEATURE_transposeproxymodel",
			"properties" : 
			[
				{
					"name" : "HELPSTRING",
					"value" : "Qt feature: transposeproxymodel (from target Qt6::Core)"
				}
			],
			"type" : "INTERNAL",
			"value" : "ON"
		},
		{
			"name" : "QT_FEATURE_use_bfd_linker",
			"properties" : 
			[
				{
					"name" : "HELPSTRING",
					"value" : "Qt feature: use_bfd_linker (from target Qt6::Core)"
				}
			],
			"type" : "INTERNAL",
			"value" : "OFF"
		},
		{
			"name" : "QT_FEATURE_use_gold_linker",
			"properties" : 
			[
				{
					"name" : "HELPSTRING",
					"value" : "Qt feature: use_gold_linker (from target Qt6::Core)"
				}
			],
			"type" : "INTERNAL",
			"value" : "OFF"
		},
		{
			"name" : "QT_FEATURE_use_lld_linker",
			"properties" : 
			[
				{
					"name" : "HELPSTRING",
					"value" : "Qt feature: use_lld_linker (from target Qt6::Core)"
				}
			],
			"type" : "INTERNAL",
			"value" : "OFF"
		},
		{
			"name" : "QT_FEATURE_use_mold_linker",
			"properties" : 
			[
				{
					"name" : "HELPSTRING",
					"value" : "Qt feature: use_mold_linker (from target Qt6::Core)"
				}
			],
			"type" : "INTERNAL",
			"value" : "OFF"
		},
		{
			"name" : "QT_FEATURE_widgets",
			"properties" : 
			[
				{
					"name" : "HELPSTRING",
					"value" : "Qt feature: widgets (from target Qt6::Core)"
				}
			],
			"type" : "INTERNAL",
			"value" : "ON"
		},
		{
			"name" : "QT_FEATURE_xml",
			"properties" : 
			[
				{
					"name" : "HELPSTRING",
					"value" : "Qt feature: xml (from target Qt6::Core)"
				}
			],
			"type" : "INTERNAL",
			"value" : "ON"
		},
		{
			"name" : "QT_FEATURE_xmlstream",
			"properties" : 
			[
				{
					"name" : "HELPSTRING",
					"value" : "Qt feature: xmlstream (from target Qt6::Core)"
				}
			],
			"type" : "INTERNAL",
			"value" : "ON"
		},
		{
			"name" : "QT_FEATURE_xmlstreamreader",
			"properties" : 
			[
				{
					"name" : "HELPSTRING",
					"value" : "Qt feature: xmlstreamreader (from target Qt6::Core)"
				}
			],
			"type" : "INTERNAL",
			"value" : "ON"
		},
		{
			"name" : "QT_FEATURE_xmlstreamwriter",
			"properties" : 
			[
				{
					"name" : "HELPSTRING",
					"value" : "Qt feature: xmlstreamwriter (from target Qt6::Core)"
				}
			],
			"type" : "INTERNAL",
			"value" : "ON"
		},
		{
			"name" : "QT_FEATURE_zstd",
			"properties" : 
			[
				{
					"name" : "HELPSTRING",
					"value" : "Qt feature: zstd (from target Qt6::Core)"
				}
			],
			"type" : "INTERNAL",
			"value" : "OFF"
		},
		{
			"name" : "QT_QMAKE_EXECUTABLE",
			"properties" : 
			[
				{
					"name" : "HELPSTRING",
					"value" : "No help, variable specified on the command line."
				}
			],
			"type" : "FILEPATH",
			"value" : "C:/Qt/6.3.1/mingw_64/bin/qmake.exe"
		},
		{
			"name" : "Qt6CoreTools_DIR",
			"properties" : 
			[
				{
					"name" : "HELPSTRING",
					"value" : "The directory containing a CMake configuration file for Qt6CoreTools."
				}
			],
			"type" : "PATH",
			"value" : "C:/Qt/6.3.1/mingw_64/lib/cmake/Qt6CoreTools"
		},
		{
			"name" : "Qt6Core_DIR",
			"properties" : 
			[
				{
					"name" : "HELPSTRING",
					"value" : "The directory containing a CMake configuration file for Qt6Core."
				}
			],
			"type" : "PATH",
			"value" : "C:/Qt/6.3.1/mingw_64/lib/cmake/Qt6Core"
		},
		{
			"name" : "Qt6EntryPointPrivate_DIR",
			"properties" : 
			[
				{
					"name" : "HELPSTRING",
					"value" : "The directory containing a CMake configuration file for Qt6EntryPointPrivate."
				}
			],
			"type" : "PATH",
			"value" : "C:/Qt/6.3.1/mingw_64/lib/cmake/Qt6EntryPointPrivate"
		},
		{
			"name" : "Qt6ZlibPrivate_DIR",
			"properties" : 
			[
				{
					"name" : "HELPSTRING",
					"value" : "The directory containing a CMake configuration file for Qt6ZlibPrivate."
				}
			],
			"type" : "PATH",
			"value" : "C:/Qt/6.3.1/mingw_64/lib/cmake/Qt6ZlibPrivate"
		},
		{
			"name" : "Qt6_DIR",
			"properties" : 
			[
				{
					"name" : "HELPSTRING",
					"value" : "The directory containing a CMake configuration file for Qt6."
				}
			],
			"type" : "PATH",
			"value" : "C:/Qt/6.3.1/mingw_64/lib/cmake/Qt6"
		},
		{
			"name" : "WINDEPLOYQT_EXECUTABLE",
			"properties" : 
			[
				{
					"name" : "HELPSTRING",
					"value" : "Path to a program."
				}
			],
			"type" : "FILEPATH",
			"value" : "C:/Qt/6.3.1/mingw_64/bin/windeployqt.exe"
		},
		{
			"name" : "_GNUInstallDirs_LAST_CMAKE_INSTALL_PREFIX",
			"properties" : 
			[
				{
					"name" : "HELPSTRING",
					"value" : "CMAKE_INSTALL_PREFIX during last run"
				}
			],
			"type" : "INTERNAL",
			"value" : "C:/Program Files (x86)/N-Queen-Problem"
		}
	],
	"kind" : "cache",
	"version" : 
	{
		"major" : 2,
		"minor" : 0
	}
}
